<?xml version="1.0" encoding="utf-8" ?>
<svg xmlns="http://www.w3.org/2000/svg" xmlns:ev="http://www.w3.org/2001/xml-events" xmlns:ifc="http://www.ifcopenshell.org/ns" xmlns:xlink="http://www.w3.org/1999/xlink" baseProfile="full" data-scale="1/4&quot;=1'-0&quot;" height="466.66673819224036mm" id="root" version="1.1" viewBox="0 0 373.3333905537923 466.66673819224036" width="373.3333905537923mm">
  <defs/>
  <path class="GlobalId-3anZYDYwj1UQNTQSvp$iJ4 IfcAnnotation PredefinedType-TEXTLEADER" d="M 71.78722620010376 299.48486884435016 L 80.35523494084677 299.48486884435016 L 138.71549367904663 336.73038085301715"/>
  <text dominant-baseline="middle" style="font-size: 0;" text-anchor="end" transform="translate(71.7872314453125, 299.48486328125) rotate(-0.0)">
    <tspan class="GlobalId-3anZYDYwj1UQNTQSvp$iJ4 IfcAnnotation PredefinedType-TEXTLEADER" dy="0em" x="0" y="0">VERIFY ELEVATION W/ THICKNESS OF </tspan>
    <tspan class="GlobalId-3anZYDYwj1UQNTQSvp$iJ4 IfcAnnotation PredefinedType-TEXTLEADER" dy="1em" x="0" y="0">DECKING AND DOOR THRESHOLDS</tspan>
  </text>
  <path class="GlobalId-1sW4tmruf0Cv6hhfQDx0Tf IfcAnnotation PredefinedType-TEXTLEADER" d="M 246.37544949849445 36.91021601359049 L 240.26124477386475 36.91021601359049 L 218.3677832285563 64.8452639579773"/>
  <text dominant-baseline="middle" style="font-size: 0;" text-anchor="start" transform="translate(246.3754425048828, 36.91021728515625) rotate(-0.0)">
    <tspan class="GlobalId-1sW4tmruf0Cv6hhfQDx0Tf IfcAnnotation PredefinedType-TEXTLEADER" dy="0em" x="0" y="0">STRINGERS: 2x12's AT 16&quot; O.C., TYP.</tspan>
  </text>
  <line class="GlobalId-0WLyG6nG91cBMC0s7rGL4q IfcAnnotation PredefinedType-DIMENSION" x1="151.426513671875" x2="151.426513671875" y1="95.5260009765625" y2="87.05931854248047"/>
  <text dominant-baseline="baseline" style="font-size: 0;" text-anchor="middle" transform="translate(150.426513671875, 91.29266357421875) rotate(-90.00000250447816)">
    <tspan class="DIMENSION" dy="0em" x="0" y="0">1' - 4&quot;</tspan>
  </text>
  <line class="GlobalId-2R3JUxdqnBYRoy7TFnuiCt IfcAnnotation PredefinedType-DIMENSION" x1="202.2593536376953" x2="210.7260284423828" y1="61.12490463256836" y2="61.12490463256836"/>
  <text dominant-baseline="baseline" style="font-size: 0;" text-anchor="middle" transform="translate(206.49269104003906, 60.12490463256836) rotate(0.0)">
    <tspan class="DIMENSION" dy="0em" x="0" y="0">1' - 4&quot;</tspan>
  </text>
  <line class="GlobalId-3htkVc8cn9gwfTO5RwTOwd IfcAnnotation PredefinedType-DIMENSION" x1="177.38632202148438" x2="185.85301208496094" y1="95.5260009765625" y2="95.5260009765625"/>
  <text dominant-baseline="baseline" style="font-size: 0;" text-anchor="middle" transform="translate(181.61965942382812, 94.5260009765625) rotate(0.0)">
    <tspan class="DIMENSION" dy="0em" x="0" y="0">1' - 4&quot;</tspan>
  </text>
  <line class="GlobalId-1beIYzYG93fREMQ$PUIorF IfcAnnotation PredefinedType-DIMENSION" x1="108.83216094970703" x2="188.3697967529297" y1="422.2262878417969" y2="422.2262878417969"/>
  <text dominant-baseline="baseline" style="font-size: 0;" text-anchor="middle" transform="translate(148.60098266601562, 421.2262878417969) rotate(0.0)">
    <tspan class="DIMENSION" dy="0em" x="0" y="0">12' - 6 1/2&quot;</tspan>
  </text>
  <line class="GlobalId-1beIYzYG93fREMQ$PUIorF IfcAnnotation PredefinedType-DIMENSION" x1="188.3697967529297" x2="224.08856201171875" y1="422.2262878417969" y2="422.2261962890625"/>
  <text dominant-baseline="baseline" style="font-size: 0;" text-anchor="middle" transform="translate(206.22918701171875, 421.22625732421875) rotate(-0.00014685796497327326)">
    <tspan class="DIMENSION" dy="0em" x="0" y="0">5' - 7 1/2&quot;</tspan>
  </text>
  <line class="GlobalId-1wAriba5r7yvMGS_7Q_goD IfcAnnotation PredefinedType-DIMENSION" x1="91.0134506225586" x2="91.0134506225586" y1="403.7634582519531" y2="377.8851013183594"/>
  <text dominant-baseline="baseline" style="font-size: 0;" text-anchor="middle" transform="translate(90.0134506225586, 390.82427978515625) rotate(-90.00000250447816)">
    <tspan class="DIMENSION" dy="0em" x="0" y="0">4' - 1&quot;</tspan>
  </text>
  <line class="GlobalId-1wAriba5r7yvMGS_7Q_goD IfcAnnotation PredefinedType-DIMENSION" x1="91.0134506225586" x2="91.0134506225586" y1="377.8851013183594" y2="283.51055908203125"/>
  <text dominant-baseline="baseline" style="font-size: 0;" text-anchor="middle" transform="translate(90.0134506225586, 330.69781494140625) rotate(-90.00000250447816)">
    <tspan class="DIMENSION" dy="0em" x="0" y="0">14' - 10 1/2&quot;</tspan>
  </text>
  <line class="GlobalId-05I9AaOkr7chP5e$kMW3St IfcAnnotation PredefinedType-DIMENSION" x1="137.58534240722656" x2="137.58534240722656" y1="104.10795593261719" y2="78.70620727539062"/>
  <text dominant-baseline="baseline" style="font-size: 0;" text-anchor="middle" transform="translate(136.58534240722656, 91.4070816040039) rotate(-90.00000250447816)">
    <tspan class="DIMENSION" dy="0em" x="0" y="0">4' - 0&quot;</tspan>
  </text>
  <line class="GlobalId-05I9AaOkr7chP5e$kMW3St IfcAnnotation PredefinedType-DIMENSION" x1="137.58534240722656" x2="137.58534240722656" y1="78.70620727539062" y2="64.46959686279297"/>
  <text dominant-baseline="baseline" style="font-size: 0;" text-anchor="middle" transform="translate(136.58534240722656, 71.58790588378906) rotate(-90.00000250447816)">
    <tspan class="DIMENSION" dy="0em" x="0" y="0">2' - 3&quot;</tspan>
  </text>
  <line class="GlobalId-05I9AaOkr7chP5e$kMW3St IfcAnnotation PredefinedType-DIMENSION" x1="137.58534240722656" x2="137.58534240722656" y1="64.46959686279297" y2="49.3864631652832"/>
  <text dominant-baseline="baseline" style="font-size: 0;" text-anchor="middle" transform="translate(136.58534240722656, 56.92803192138672) rotate(-90.00000250447816)">
    <tspan class="DIMENSION" dy="0em" x="0" y="0">2' - 4 1/2&quot;</tspan>
  </text>
  <line class="GlobalId-1NnrPCa2LFBhpBKiJafSgq IfcAnnotation PredefinedType-DIMENSION" x1="145.2335205078125" x2="167.9893341064453" y1="48.4361457824707" y2="48.4361457824707"/>
  <text dominant-baseline="baseline" style="font-size: 0;" text-anchor="middle" transform="translate(156.61141967773438, 47.4361457824707) rotate(0.0)">
    <tspan class="DIMENSION" dy="0em" x="0" y="0">3' - 7&quot;</tspan>
  </text>
  <line class="GlobalId-1NnrPCa2LFBhpBKiJafSgq IfcAnnotation PredefinedType-DIMENSION" x1="167.9893341064453" x2="193.6597900390625" y1="48.4361457824707" y2="48.4361457824707"/>
  <text dominant-baseline="baseline" style="font-size: 0;" text-anchor="middle" transform="translate(180.82455444335938, 47.4361457824707) rotate(0.0)">
    <tspan class="DIMENSION" dy="0em" x="0" y="0">4' - 0 1/2&quot;</tspan>
  </text>
  <line class="GlobalId-1NnrPCa2LFBhpBKiJafSgq IfcAnnotation PredefinedType-DIMENSION" x1="193.6597900390625" x2="219.06153869628906" y1="48.4361457824707" y2="48.4361457824707"/>
  <text dominant-baseline="baseline" style="font-size: 0;" text-anchor="middle" transform="translate(206.36065673828125, 47.4361457824707) rotate(0.0)">
    <tspan class="DIMENSION" dy="0em" x="0" y="0">4' - 0&quot;</tspan>
  </text>
  <line class="GlobalId-26ieFOnnr6mhrgGOP0GzAx IfcAnnotation PredefinedType-DIMENSION" x1="127.13786315917969" x2="135.60450744628906" y1="312.2482604980469" y2="312.2482604980469"/>
  <text dominant-baseline="baseline" style="font-size: 0;" text-anchor="middle" transform="translate(131.37118530273438, 311.2482604980469) rotate(0.0)">
    <tspan class="DIMENSION" dy="0em" x="0" y="0">1' - 4&quot;</tspan>
  </text>
  <path class="GlobalId-2H2u2QGgDBt8cuULtV$6ys IfcAnnotation PredefinedType-PLANLEVEL fill-bg" d="M 137.98118591308594 339.3879089355469 L 152.2034912109375 339.3879089355469"/>
  <text dominant-baseline="baseline" filter="url(#fill-background)" style="font-size: 0;" text-anchor="start" transform="translate(137.98118591308594, 338.3879089355469) rotate(0.0)">
    <tspan class="PLANLEVEL" dy="0em" x="0" y="0">-1 1/2&quot;</tspan>
  </text>
  <text dominant-baseline="baseline" style="font-size: 0;" text-anchor="start" transform="translate(137.98118591308594, 338.3879089355469) rotate(0.0)">
    <tspan class="PLANLEVEL" dy="0em" x="0" y="0">-1 1/2&quot;</tspan>
  </text>
  <path class="GlobalId-00TWzKwYjAuRGj2YfZMWai IfcAnnotation PredefinedType-TEXTLEADER" d="M 101.56926314036052 50.73354641596476 L 105.85761864980061 50.73356628417969 L 146.14495436350504 77.84930864969888"/>
  <text dominant-baseline="middle" style="font-size: 0;" text-anchor="end" transform="translate(101.56926727294922, 50.73354721069336) rotate(-0.0)">
    <tspan class="GlobalId-00TWzKwYjAuRGj2YfZMWai IfcAnnotation PredefinedType-TEXTLEADER" dy="0em" x="0" y="0">USE GROUND CONTACT LUMBER, </tspan>
    <tspan class="GlobalId-00TWzKwYjAuRGj2YfZMWai IfcAnnotation PredefinedType-TEXTLEADER" dy="1em" x="0" y="0">AT LUMBER/GRADE CONDITIONS</tspan>
  </text>
  <line class="GlobalId-3l4X5JzVb3KBYJFRQEo$wO IfcAnnotation PredefinedType-HIDDENLINE" x1="242.3197479248047" x2="161.90354919433594" y1="85.02608489990234" y2="85.02608489990234"/>
  <path class="GlobalId-0E3GtvirD7VBMAn4soxV9N IfcAnnotation PredefinedType-TEXTLEADER" d="M 128.92465591430664 409.43084160486853 L 122.49971230824788 409.43084160486853 L 116.76795085271199 403.45269441604614"/>
  <text dominant-baseline="baseline" style="font-size: 0;" text-anchor="start" transform="translate(128.92466735839844, 409.43084716796875) rotate(-0.0)">
    <tspan class="GlobalId-0E3GtvirD7VBMAn4soxV9N IfcAnnotation PredefinedType-TEXTLEADER" dy="0em" x="0" y="0">USE GROUND CONTACT LUMBER, </tspan>
    <tspan class="GlobalId-0E3GtvirD7VBMAn4soxV9N IfcAnnotation PredefinedType-TEXTLEADER" dy="1em" x="0" y="0">AT LUMBER/GRADE CONDITIONS</tspan>
  </text>
  <path class="GlobalId-1RnCXm1ZvBFQoVKHjXQ2vg IfcAnnotation PredefinedType-TEXTLEADER" d="M 248.20161660512287 79.95877663294473 L 231.76162242889404 79.95879650115967 L 220.4746087392171 84.79011058807373"/>
  <text dominant-baseline="baseline" style="font-size: 0;" text-anchor="start" transform="translate(248.2016143798828, 79.95877838134766) rotate(-0.0)">
    <tspan class="GlobalId-1RnCXm1ZvBFQoVKHjXQ2vg IfcAnnotation PredefinedType-TEXTLEADER" dy="0em" x="0" y="0">DIAMOND PIER DP-75/50</tspan>
  </text>
  <line class="GlobalId-10bTtQ0bf4dAh3dDAtp1MP IfcAnnotation PredefinedType-DIMENSION" x1="237.67471313476562" x2="237.67471313476562" y1="104.10795593261719" y2="85.02608489990234"/>
  <text dominant-baseline="baseline" style="font-size: 0;" text-anchor="middle" transform="translate(236.67471313476562, 94.5670166015625) rotate(-90.00000250447816)">
    <tspan class="DIMENSION" dy="0em" x="0" y="0">3' - 0&quot;</tspan>
  </text>
  <line class="GlobalId-10bTtQ0bf4dAh3dDAtp1MP IfcAnnotation PredefinedType-DIMENSION" x1="237.67471313476562" x2="237.67471313476562" y1="85.02608489990234" y2="49.38648223876953"/>
  <text dominant-baseline="baseline" style="font-size: 0;" text-anchor="middle" transform="translate(236.67471313476562, 67.20628356933594) rotate(-90.00000250447816)">
    <tspan class="DIMENSION" dy="0em" x="0" y="0">5' - 7 1/2&quot;</tspan>
  </text>
  <line class="GlobalId-1_gkT7$5XEMf9sSCMCfEjh IfcAnnotation PredefinedType-DIMENSION" x1="108.83214569091797" x2="190.75108337402344" y1="352.87310791015625" y2="352.87310791015625"/>
  <text dominant-baseline="baseline" style="font-size: 0;" text-anchor="middle" transform="translate(149.79161071777344, 351.87310791015625) rotate(0.0)">
    <tspan class="DIMENSION" dy="0em" x="0" y="0">12' - 11&quot;</tspan>
  </text>
  <line class="GlobalId-1_gkT7$5XEMf9sSCMCfEjh IfcAnnotation PredefinedType-DIMENSION" x1="190.75108337402344" x2="222.50120544433594" y1="352.87310791015625" y2="352.87310791015625"/>
  <text dominant-baseline="baseline" style="font-size: 0;" text-anchor="middle" transform="translate(206.6261444091797, 351.87310791015625) rotate(0.0)">
    <tspan class="DIMENSION" dy="0em" x="0" y="0">5' - 0&quot;</tspan>
  </text>
  <path class="GlobalId-2zdNlq7lT6Fg612OJBjQJm IfcAnnotation PredefinedType-TEXTLEADER" d="M 100.08927981058757 29.421885808308918 L 104.37763532002766 29.421905676523842 L 179.71079349517822 38.68915637334187"/>
  <text dominant-baseline="middle" style="font-size: 0;" text-anchor="end" transform="translate(100.08928680419922, 29.421886444091797) rotate(-0.0)">
    <tspan class="GlobalId-2zdNlq7lT6Fg612OJBjQJm IfcAnnotation PredefinedType-TEXTLEADER" dy="0em" x="0" y="0">4&quot; CONCRETE</tspan>
  </text>
  <path class="GlobalId-0JAZZ7X0b4eeHG_lEz564y IfcAnnotation PredefinedType-PLANLEVEL fill-bg" d="M 194.31356811523438 388.2822265625 L 208.6439971923828 388.2822265625"/>
  <text dominant-baseline="baseline" filter="url(#fill-background)" style="font-size: 0;" text-anchor="start" transform="translate(194.31356811523438, 387.2822265625) rotate(0.0)">
    <tspan class="PLANLEVEL" dy="0em" x="0" y="0">-1' - 2 1/2&quot;</tspan>
  </text>
  <text dominant-baseline="baseline" style="font-size: 0;" text-anchor="start" transform="translate(194.31356811523438, 387.2822265625) rotate(0.0)">
    <tspan class="PLANLEVEL" dy="0em" x="0" y="0">-1' - 2 1/2&quot;</tspan>
  </text>
  <path class="GlobalId-1gI4jrxEj6FhkRIpcN5Fcp IfcAnnotation PredefinedType-PLANLEVEL fill-bg" d="M 210.65855407714844 96.10021209716797 L 194.38465881347656 96.10021209716797"/>
  <text dominant-baseline="baseline" filter="url(#fill-background)" style="font-size: 0;" text-anchor="end" transform="translate(210.65855407714844, 95.10021209716797) rotate(-0.0)">
    <tspan class="PLANLEVEL" dy="0em" x="0" y="0">-8 1/2&quot;</tspan>
  </text>
  <text dominant-baseline="baseline" style="font-size: 0;" text-anchor="end" transform="translate(210.65855407714844, 95.10021209716797) rotate(-0.0)">
    <tspan class="PLANLEVEL" dy="0em" x="0" y="0">-8 1/2&quot;</tspan>
  </text>
  <path class="GlobalId-2dYR2LPUr0ZAAud6Ev6MKj IfcAnnotation PredefinedType-TEXTLEADER" d="M 240.60929616292316 419.1574454307556 L 234.18431282043457 419.1574454307556 L 224.67129230499268 405.04382054011023"/>
  <text dominant-baseline="baseline" style="font-size: 0;" text-anchor="start" transform="translate(240.6092987060547, 419.1574401855469) rotate(-0.0)">
    <tspan class="GlobalId-2dYR2LPUr0ZAAud6Ev6MKj IfcAnnotation PredefinedType-TEXTLEADER" dy="0em" x="0" y="0">DIAMOND PIER DP-75/50</tspan>
  </text>
  <path class="GlobalId-0bjSiFxL963gg198Vv1xq9 IfcAnnotation PredefinedType-TEXTLEADER" d="M 87.28139400482178 418.5600082079569 L 91.84194405873616 418.5600082079569 L 106.73575401306152 390.4973864555359"/>
  <path class="GlobalId-0bjSiFxL963gg198Vv1xq9 IfcAnnotation PredefinedType-TEXTLEADER" d="M 91.84194405873616 418.5600082079569 L 109.51134363810222 404.97010946273804"/>
  <text dominant-baseline="baseline" style="font-size: 0;" text-anchor="start" transform="translate(87.2813949584961, 418.5600280761719) rotate(-0.0)">
    <tspan class="GlobalId-0bjSiFxL963gg198Vv1xq9 IfcAnnotation PredefinedType-TEXTLEADER" dy="0em" x="0" y="0"/>
  </text>
  <line class="GlobalId-3G$Z1_KpH0kATsbw9sE5Qz IfcAnnotation PredefinedType-HIDDENLINE" x1="224.08856201171875" x2="224.08856201171875" y1="433.3841247558594" y2="367.97271728515625"/>
  <line class="GlobalId-3G$Z1_KpH0kATsbw9sE5Qz IfcAnnotation PredefinedType-HIDDENLINE" x1="188.36984252929688" x2="188.36984252929688" y1="433.3841247558594" y2="367.97271728515625"/>
  <line class="GlobalId-3G$Z1_KpH0kATsbw9sE5Qz IfcAnnotation PredefinedType-HIDDENLINE" x1="84.7048110961914" x2="233.57455444335938" y1="377.8851013183594" y2="377.8851013183594"/>
  <path class="GlobalId-0J3FeiEtXE5uQfP6_rlBzx IfcAnnotation PredefinedType-TEXTLEADER" d="M 102.49685049057007 68.6989426612854 L 113.57417503992717 68.6989426612854 L 142.62331326802573 81.98326826095581"/>
  <path class="GlobalId-0J3FeiEtXE5uQfP6_rlBzx IfcAnnotation PredefinedType-TEXTLEADER" d="M 113.57417503992717 68.6989426612854 L 145.10966142018637 100.4533569018046"/>
  <text dominant-baseline="middle" style="font-size: 0;" text-anchor="end" transform="translate(102.49685668945312, 68.69894409179688) rotate(-0.0)">
    <tspan class="GlobalId-0J3FeiEtXE5uQfP6_rlBzx IfcAnnotation PredefinedType-TEXTLEADER" dy="0em" x="0" y="0">12&quot;x12&quot;x3-3/8&quot; OCTAGONAL OR </tspan>
    <tspan class="GlobalId-0J3FeiEtXE5uQfP6_rlBzx IfcAnnotation PredefinedType-TEXTLEADER" dy="1em" x="0" y="0">10&quot;x10&quot;x3-1/2&quot; ROUND PRECAST </tspan>
    <tspan class="GlobalId-0J3FeiEtXE5uQfP6_rlBzx IfcAnnotation PredefinedType-TEXTLEADER" dy="2em" x="0" y="0">CONCRETE PAD - BURIED BELOW </tspan>
    <tspan class="GlobalId-0J3FeiEtXE5uQfP6_rlBzx IfcAnnotation PredefinedType-TEXTLEADER" dy="3em" x="0" y="0">ASPHALT DRIVEWAY</tspan>
  </text>
  <line class="GlobalId-0fIS5aVZPCfQ_hjo4QXX9A IfcAnnotation PredefinedType-DIMENSION" x1="168.27830505371094" x2="168.27830505371094" y1="403.7634582519531" y2="380.266357421875"/>
  <text dominant-baseline="baseline" style="font-size: 0;" text-anchor="middle" transform="translate(167.27830505371094, 392.014892578125) rotate(-90.00000250447816)">
    <tspan class="DIMENSION" dy="0em" x="0" y="0">3' - 8 1/2&quot;</tspan>
  </text>
  <path class="GlobalId-2E$QTIDKLAUO_NB0YPZivQ IfcAnnotation PredefinedType-PLANLEVEL fill-bg" d="M 180.61904907226562 87.5025634765625 L 193.2882537841797 87.5025634765625"/>
  <text dominant-baseline="baseline" filter="url(#fill-background)" style="font-size: 0;" text-anchor="start" transform="translate(180.61904907226562, 86.5025634765625) rotate(0.0)">
    <tspan class="PLANLEVEL" dy="0em" x="0" y="0">-1 1/2&quot;</tspan>
  </text>
  <text dominant-baseline="baseline" style="font-size: 0;" text-anchor="start" transform="translate(180.61904907226562, 86.5025634765625) rotate(0.0)">
    <tspan class="PLANLEVEL" dy="0em" x="0" y="0">-1 1/2&quot;</tspan>
  </text>
  <path class="GlobalId-1N3_TyTNX8L8I$IeIqhcEz IfcAnnotation PredefinedType-PLANLEVEL fill-bg" d="M 203.01748657226562 85.13603973388672 L 209.0845184326172 85.13603973388672"/>
  <text dominant-baseline="baseline" filter="url(#fill-background)" style="font-size: 0;" text-anchor="start" transform="translate(203.01748657226562, 84.13603973388672) rotate(0.0)">
    <tspan class="PLANLEVEL" dy="0em" x="0" y="0">-8 1/2&quot;</tspan>
  </text>
  <text dominant-baseline="baseline" style="font-size: 0;" text-anchor="start" transform="translate(203.01748657226562, 84.13603973388672) rotate(0.0)">
    <tspan class="PLANLEVEL" dy="0em" x="0" y="0">-8 1/2&quot;</tspan>
  </text>
  <line class="GlobalId-1qF4u02CH4ixW6FxgcQ9ah IfcAnnotation PredefinedType-DIMENSION" x1="134.12478637695312" x2="134.12478637695312" y1="396.29541015625" y2="387.82867431640625"/>
  <text dominant-baseline="baseline" style="font-size: 0;" text-anchor="middle" transform="translate(133.12478637695312, 392.0620422363281) rotate(-90.00000250447816)">
    <tspan class="DIMENSION" dy="0em" x="0" y="0">1' - 4&quot;</tspan>
  </text>
  <text dominant-baseline="baseline" filter="url(#fill-background)" style="font-size: 0;" text-anchor="start" transform="translate(171.9756622314453, 83.32308197021484) rotate(-45.00000125223908)">
    <tspan class="GlobalId-2vHI$1_XHB2v5FdvKzHJ78 IfcAnnotation PredefinedType-TEXT fill-bg" dy="0em" x="0" y="0">6x6</tspan>
  </text>
  <text dominant-baseline="baseline" style="font-size: 0;" text-anchor="start" transform="translate(171.9756622314453, 83.32308197021484) rotate(-45.00000125223908)">
    <tspan class="GlobalId-2vHI$1_XHB2v5FdvKzHJ78 IfcAnnotation PredefinedType-TEXT fill-bg" dy="0em" x="0" y="0">6x6</tspan>
  </text>
  <text dominant-baseline="baseline" filter="url(#fill-background)" style="font-size: 0;" text-anchor="start" transform="translate(205.32687377929688, 343.97412109375) rotate(-89.999995674289)">
    <tspan class="GlobalId-0A1ksm$1vAeAJVwnWsVYKZ IfcAnnotation PredefinedType-TEXT fill-bg" dy="0em" x="0" y="0">2x8 JOIST</tspan>
  </text>
  <text dominant-baseline="baseline" style="font-size: 0;" text-anchor="start" transform="translate(205.32687377929688, 343.97412109375) rotate(-89.999995674289)">
    <tspan class="GlobalId-0A1ksm$1vAeAJVwnWsVYKZ IfcAnnotation PredefinedType-TEXT fill-bg" dy="0em" x="0" y="0">2x8 JOIST</tspan>
  </text>
  <text dominant-baseline="baseline" filter="url(#fill-background)" style="font-size: 0;" text-anchor="start" transform="translate(160.96096801757812, 288.546630859375) rotate(-0.0)">
    <tspan class="GlobalId-2Y3jce40r3uQiemUhmCdsC IfcAnnotation PredefinedType-TEXT fill-bg" dy="0em" x="0" y="0">2x LEDGER</tspan>
  </text>
  <text dominant-baseline="baseline" style="font-size: 0;" text-anchor="start" transform="translate(160.96096801757812, 288.546630859375) rotate(-0.0)">
    <tspan class="GlobalId-2Y3jce40r3uQiemUhmCdsC IfcAnnotation PredefinedType-TEXT fill-bg" dy="0em" x="0" y="0">2x LEDGER</tspan>
  </text>
  <text dominant-baseline="baseline" filter="url(#fill-background)" style="font-size: 0;" text-anchor="start" transform="translate(134.54476928710938, 376.1820983886719) rotate(-45.00000125223908)">
    <tspan class="GlobalId-29O8OV3791VxIQtuDSIf_a IfcAnnotation PredefinedType-TEXT fill-bg" dy="0em" x="0" y="0">6x6</tspan>
  </text>
  <text dominant-baseline="baseline" style="font-size: 0;" text-anchor="start" transform="translate(134.54476928710938, 376.1820983886719) rotate(-45.00000125223908)">
    <tspan class="GlobalId-29O8OV3791VxIQtuDSIf_a IfcAnnotation PredefinedType-TEXT fill-bg" dy="0em" x="0" y="0">6x6</tspan>
  </text>
  <text dominant-baseline="baseline" filter="url(#fill-background)" style="font-size: 0;" text-anchor="start" transform="translate(90.02396392822266, 273.9266357421875) rotate(-89.999995674289)">
    <tspan class="GlobalId-3$NhqvTbv5ex8kadTWvgHC IfcAnnotation PredefinedType-TEXT fill-bg" dy="0em" x="0" y="0">EXISTING JOISTS</tspan>
  </text>
  <text dominant-baseline="baseline" style="font-size: 0;" text-anchor="start" transform="translate(90.02396392822266, 273.9266357421875) rotate(-89.999995674289)">
    <tspan class="GlobalId-3$NhqvTbv5ex8kadTWvgHC IfcAnnotation PredefinedType-TEXT fill-bg" dy="0em" x="0" y="0">EXISTING JOISTS</tspan>
  </text>
  <text dominant-baseline="baseline" filter="url(#fill-background)" style="font-size: 0;" text-anchor="start" transform="translate(191.6947479248047, 400.60528564453125) rotate(-45.00000125223908)">
    <tspan class="GlobalId-2cNlJMkI58Dxe540gqmuch IfcAnnotation PredefinedType-TEXT fill-bg" dy="0em" x="0" y="0">6x6</tspan>
  </text>
  <text dominant-baseline="baseline" style="font-size: 0;" text-anchor="start" transform="translate(191.6947479248047, 400.60528564453125) rotate(-45.00000125223908)">
    <tspan class="GlobalId-2cNlJMkI58Dxe540gqmuch IfcAnnotation PredefinedType-TEXT fill-bg" dy="0em" x="0" y="0">6x6</tspan>
  </text>
  <text dominant-baseline="baseline" filter="url(#fill-background)" style="font-size: 0;" text-anchor="start" transform="translate(178.4215850830078, 82.62646484375) rotate(-0.0)">
    <tspan class="GlobalId-1xsEgbCQf4$xfLTtcTAoFk IfcAnnotation PredefinedType-TEXT fill-bg" dy="0em" x="0" y="0">(2) 2x10 BEAM</tspan>
  </text>
  <text dominant-baseline="baseline" style="font-size: 0;" text-anchor="start" transform="translate(178.4215850830078, 82.62646484375) rotate(-0.0)">
    <tspan class="GlobalId-1xsEgbCQf4$xfLTtcTAoFk IfcAnnotation PredefinedType-TEXT fill-bg" dy="0em" x="0" y="0">(2) 2x10 BEAM</tspan>
  </text>
  <text dominant-baseline="baseline" filter="url(#fill-background)" style="font-size: 0;" text-anchor="start" transform="translate(197.3842010498047, 375.8619689941406) rotate(-0.0)">
    <tspan class="GlobalId-0q0QDsfIDFTBu7JbGICnQd IfcAnnotation PredefinedType-TEXT fill-bg" dy="0em" x="0" y="0">(2) 2x8 BEAM</tspan>
  </text>
  <text dominant-baseline="baseline" style="font-size: 0;" text-anchor="start" transform="translate(197.3842010498047, 375.8619689941406) rotate(-0.0)">
    <tspan class="GlobalId-0q0QDsfIDFTBu7JbGICnQd IfcAnnotation PredefinedType-TEXT fill-bg" dy="0em" x="0" y="0">(2) 2x8 BEAM</tspan>
  </text>
  <text dominant-baseline="hanging" style="font-size: 0;" text-anchor="end" transform="translate(85.27877807617188, 416.6515808105469) rotate(-0.0)">
    <tspan class="GlobalId-1N59MxDHTC1u6bMF4RHaed IfcAnnotation PredefinedType-TEXT" dy="0em" x="0" y="0">2'x2'X3&quot; CONCRETE PAVER</tspan>
  </text>
  <text dominant-baseline="baseline" filter="url(#fill-background)" style="font-size: 0;" text-anchor="start" transform="translate(198.6293487548828, 394.89007568359375) rotate(-0.0)">
    <tspan class="GlobalId-1YhxK50oj1wOglyqjfriCc IfcAnnotation PredefinedType-TEXT fill-bg" dy="0em" x="0" y="0">2x6 JOIST</tspan>
  </text>
  <text dominant-baseline="baseline" style="font-size: 0;" text-anchor="start" transform="translate(198.6293487548828, 394.89007568359375) rotate(-0.0)">
    <tspan class="GlobalId-1YhxK50oj1wOglyqjfriCc IfcAnnotation PredefinedType-TEXT fill-bg" dy="0em" x="0" y="0">2x6 JOIST</tspan>
  </text>
  <text dominant-baseline="baseline" filter="url(#fill-background)" style="font-size: 0;" text-anchor="start" transform="translate(182.12013244628906, 102.25807189941406) rotate(-0.0)">
    <tspan class="GlobalId-2lVw6PAI1DGhyLJejOtwye IfcAnnotation PredefinedType-TEXT fill-bg" dy="0em" x="0" y="0">2x LEDGER</tspan>
  </text>
  <text dominant-baseline="baseline" style="font-size: 0;" text-anchor="start" transform="translate(182.12013244628906, 102.25807189941406) rotate(-0.0)">
    <tspan class="GlobalId-2lVw6PAI1DGhyLJejOtwye IfcAnnotation PredefinedType-TEXT fill-bg" dy="0em" x="0" y="0">2x LEDGER</tspan>
  </text>
  <text dominant-baseline="baseline" filter="url(#fill-background)" style="font-size: 0;" text-anchor="start" transform="translate(185.78370666503906, 411.38134765625) rotate(-89.99998884409983)">
    <tspan class="GlobalId-0KuKtMGar1yhtmAlUKQDxW IfcAnnotation PredefinedType-TEXT fill-bg" dy="0em" x="0" y="0">(2) 2x10 BEAM</tspan>
  </text>
  <text dominant-baseline="baseline" style="font-size: 0;" text-anchor="start" transform="translate(185.78370666503906, 411.38134765625) rotate(-89.99998884409983)">
    <tspan class="GlobalId-0KuKtMGar1yhtmAlUKQDxW IfcAnnotation PredefinedType-TEXT fill-bg" dy="0em" x="0" y="0">(2) 2x10 BEAM</tspan>
  </text>
  <text dominant-baseline="baseline" filter="url(#fill-background)" style="font-size: 0;" text-anchor="start" transform="translate(75.66236877441406, 230.4172821044922) rotate(-45.00000125223908)">
    <tspan class="GlobalId-3yBkS3Zj1ANuNTkkU0F1UL IfcAnnotation PredefinedType-TEXT fill-bg" dy="0em" x="0" y="0">(3) 2x4</tspan>
  </text>
  <text dominant-baseline="baseline" style="font-size: 0;" text-anchor="start" transform="translate(75.66236877441406, 230.4172821044922) rotate(-45.00000125223908)">
    <tspan class="GlobalId-3yBkS3Zj1ANuNTkkU0F1UL IfcAnnotation PredefinedType-TEXT fill-bg" dy="0em" x="0" y="0">(3) 2x4</tspan>
  </text>
  <text dominant-baseline="baseline" filter="url(#fill-background)" style="font-size: 0;" text-anchor="start" transform="translate(229.58529663085938, 385.0837707519531) rotate(-89.99998201391065)">
    <tspan class="GlobalId-3p_gft6Vr6aubdAa9gPLm9 IfcAnnotation PredefinedType-TEXT fill-bg" dy="0em" x="0" y="0">(2) 2x8 BEAM</tspan>
  </text>
  <text dominant-baseline="baseline" style="font-size: 0;" text-anchor="start" transform="translate(229.58529663085938, 385.0837707519531) rotate(-89.99998201391065)">
    <tspan class="GlobalId-3p_gft6Vr6aubdAa9gPLm9 IfcAnnotation PredefinedType-TEXT fill-bg" dy="0em" x="0" y="0">(2) 2x8 BEAM</tspan>
  </text>
  <text dominant-baseline="baseline" filter="url(#fill-background)" style="font-size: 0;" text-anchor="start" transform="translate(191.6947479248047, 376.1820983886719) rotate(-45.00000125223908)">
    <tspan class="GlobalId-0Hdo95hZD3t86K3Dyr9LR0 IfcAnnotation PredefinedType-TEXT fill-bg" dy="0em" x="0" y="0">6x6</tspan>
  </text>
  <text dominant-baseline="baseline" style="font-size: 0;" text-anchor="start" transform="translate(191.6947479248047, 376.1820983886719) rotate(-45.00000125223908)">
    <tspan class="GlobalId-0Hdo95hZD3t86K3Dyr9LR0 IfcAnnotation PredefinedType-TEXT fill-bg" dy="0em" x="0" y="0">6x6</tspan>
  </text>
  <text dominant-baseline="baseline" filter="url(#fill-background)" style="font-size: 0;" text-anchor="start" transform="translate(75.66898345947266, 237.6432647705078) rotate(-0.0)">
    <tspan class="GlobalId-0dlyD0l$v0RxyAhKIO9PNX IfcAnnotation PredefinedType-TEXT fill-bg" dy="0em" x="0" y="0">2x12 OR 1 3/4 x 7 1/4LVL</tspan>
  </text>
  <text dominant-baseline="baseline" style="font-size: 0;" text-anchor="start" transform="translate(75.66898345947266, 237.6432647705078) rotate(-0.0)">
    <tspan class="GlobalId-0dlyD0l$v0RxyAhKIO9PNX IfcAnnotation PredefinedType-TEXT fill-bg" dy="0em" x="0" y="0">2x12 OR 1 3/4 x 7 1/4LVL</tspan>
  </text>
  <text dominant-baseline="baseline" filter="url(#fill-background)" style="font-size: 0;" text-anchor="start" transform="translate(167.77496337890625, 331.8884582519531) rotate(-89.999995674289)">
    <tspan class="GlobalId-3XB6_FKM93B9CcJMjOuPXV IfcAnnotation PredefinedType-TEXT fill-bg" dy="0em" x="0" y="0">2x12 JOIST</tspan>
  </text>
  <text dominant-baseline="baseline" style="font-size: 0;" text-anchor="start" transform="translate(167.77496337890625, 331.8884582519531) rotate(-89.999995674289)">
    <tspan class="GlobalId-3XB6_FKM93B9CcJMjOuPXV IfcAnnotation PredefinedType-TEXT fill-bg" dy="0em" x="0" y="0">2x12 JOIST</tspan>
  </text>
  <text dominant-baseline="baseline" filter="url(#fill-background)" style="font-size: 0;" text-anchor="start" transform="translate(94.41293334960938, 196.74688720703125) rotate(-0.0)">
    <tspan class="GlobalId-3sWx84gIfFLgJ9PbULtIVJ IfcAnnotation PredefinedType-TEXT fill-bg" dy="0em" x="0" y="0">EXISTING JOISTS</tspan>
  </text>
  <text dominant-baseline="baseline" style="font-size: 0;" text-anchor="start" transform="translate(94.41293334960938, 196.74688720703125) rotate(-0.0)">
    <tspan class="GlobalId-3sWx84gIfFLgJ9PbULtIVJ IfcAnnotation PredefinedType-TEXT fill-bg" dy="0em" x="0" y="0">EXISTING JOISTS</tspan>
  </text>
  <text dominant-baseline="baseline" filter="url(#fill-background)" style="font-size: 0;" text-anchor="start" transform="translate(198.32504272460938, 308.2515563964844) rotate(-0.0)">
    <tspan class="GlobalId-0ThoaYmCPDBeM1Nj7yfkND IfcAnnotation PredefinedType-TEXT fill-bg" dy="0em" x="0" y="0">(2) 2x8 BEAM</tspan>
  </text>
  <text dominant-baseline="baseline" style="font-size: 0;" text-anchor="start" transform="translate(198.32504272460938, 308.2515563964844) rotate(-0.0)">
    <tspan class="GlobalId-0ThoaYmCPDBeM1Nj7yfkND IfcAnnotation PredefinedType-TEXT fill-bg" dy="0em" x="0" y="0">(2) 2x8 BEAM</tspan>
  </text>
  <text dominant-baseline="baseline" filter="url(#fill-background)" style="font-size: 0;" text-anchor="start" transform="translate(192.4884796142578, 308.4654235839844) rotate(-45.00000125223908)">
    <tspan class="GlobalId-0$gj8OtwH0XemHdQ0GtIWY IfcAnnotation PredefinedType-TEXT fill-bg" dy="0em" x="0" y="0">6x6</tspan>
  </text>
  <text dominant-baseline="baseline" style="font-size: 0;" text-anchor="start" transform="translate(192.4884796142578, 308.4654235839844) rotate(-45.00000125223908)">
    <tspan class="GlobalId-0$gj8OtwH0XemHdQ0GtIWY IfcAnnotation PredefinedType-TEXT fill-bg" dy="0em" x="0" y="0">6x6</tspan>
  </text>
  <text dominant-baseline="baseline" filter="url(#fill-background)" style="font-size: 0;" text-anchor="start" transform="translate(149.6851348876953, 375.2989807128906) rotate(-0.0)">
    <tspan class="GlobalId-2NybNfatr9S94Qt9U2flW7 IfcAnnotation PredefinedType-TEXT fill-bg" dy="0em" x="0" y="0">(3) 2x12 BEAM</tspan>
  </text>
  <text dominant-baseline="baseline" style="font-size: 0;" text-anchor="start" transform="translate(149.6851348876953, 375.2989807128906) rotate(-0.0)">
    <tspan class="GlobalId-2NybNfatr9S94Qt9U2flW7 IfcAnnotation PredefinedType-TEXT fill-bg" dy="0em" x="0" y="0">(3) 2x12 BEAM</tspan>
  </text>
  <text dominant-baseline="baseline" filter="url(#fill-background)" style="font-size: 0;" text-anchor="start" transform="translate(165.95742797851562, 83.73036193847656) rotate(-89.99998884409983)">
    <tspan class="GlobalId-1LqveI63vBqgcXQ4cWKeSm IfcAnnotation PredefinedType-TEXT fill-bg" dy="0em" x="0" y="0">(2) 2x8 BEAM</tspan>
  </text>
  <text dominant-baseline="baseline" style="font-size: 0;" text-anchor="start" transform="translate(165.95742797851562, 83.73036193847656) rotate(-89.99998884409983)">
    <tspan class="GlobalId-1LqveI63vBqgcXQ4cWKeSm IfcAnnotation PredefinedType-TEXT fill-bg" dy="0em" x="0" y="0">(2) 2x8 BEAM</tspan>
  </text>
  <text dominant-baseline="baseline" filter="url(#fill-background)" style="font-size: 0;" text-anchor="start" transform="translate(227.41346740722656, 400.60528564453125) rotate(-45.00000125223908)">
    <tspan class="GlobalId-2w9OY3EIf2wRRXxNAtiTR1 IfcAnnotation PredefinedType-TEXT fill-bg" dy="0em" x="0" y="0">6x6</tspan>
  </text>
  <text dominant-baseline="baseline" style="font-size: 0;" text-anchor="start" transform="translate(227.41346740722656, 400.60528564453125) rotate(-45.00000125223908)">
    <tspan class="GlobalId-2w9OY3EIf2wRRXxNAtiTR1 IfcAnnotation PredefinedType-TEXT fill-bg" dy="0em" x="0" y="0">6x6</tspan>
  </text>
  <text dominant-baseline="baseline" filter="url(#fill-background)" style="font-size: 0;" text-anchor="start" transform="translate(220.93133544921875, 83.32308197021484) rotate(-45.00000125223908)">
    <tspan class="GlobalId-0xg$TBWOf6efqzvUqF$M7a IfcAnnotation PredefinedType-TEXT fill-bg" dy="0em" x="0" y="0">6x6</tspan>
  </text>
  <text dominant-baseline="baseline" style="font-size: 0;" text-anchor="start" transform="translate(220.93133544921875, 83.32308197021484) rotate(-45.00000125223908)">
    <tspan class="GlobalId-0xg$TBWOf6efqzvUqF$M7a IfcAnnotation PredefinedType-TEXT fill-bg" dy="0em" x="0" y="0">6x6</tspan>
  </text>
  <text dominant-baseline="baseline" filter="url(#fill-background)" style="font-size: 0;" text-anchor="start" transform="translate(140.93724060058594, 394.3927307128906) rotate(-0.0)">
    <tspan class="GlobalId-3K0rwZyv9Cx8usTIqKM8D_ IfcAnnotation PredefinedType-TEXT fill-bg" dy="0em" x="0" y="0">2x10 JOIST</tspan>
  </text>
  <text dominant-baseline="baseline" style="font-size: 0;" text-anchor="start" transform="translate(140.93724060058594, 394.3927307128906) rotate(-0.0)">
    <tspan class="GlobalId-3K0rwZyv9Cx8usTIqKM8D_ IfcAnnotation PredefinedType-TEXT fill-bg" dy="0em" x="0" y="0">2x10 JOIST</tspan>
  </text>
  <text dominant-baseline="baseline" filter="url(#fill-background)" style="font-size: 0;" text-anchor="start" transform="translate(209.0561065673828, 102.58561706542969) rotate(-89.99998201391065)">
    <tspan class="GlobalId-2P3zpdmtjFqvhvlYS27lxX IfcAnnotation PredefinedType-TEXT fill-bg" dy="0em" x="0" y="0">2x6 JOIST</tspan>
  </text>
  <text dominant-baseline="baseline" style="font-size: 0;" text-anchor="start" transform="translate(209.0561065673828, 102.58561706542969) rotate(-89.99998201391065)">
    <tspan class="GlobalId-2P3zpdmtjFqvhvlYS27lxX IfcAnnotation PredefinedType-TEXT fill-bg" dy="0em" x="0" y="0">2x6 JOIST</tspan>
  </text>
  <text dominant-baseline="baseline" filter="url(#fill-background)" style="font-size: 0;" text-anchor="start" transform="translate(124.54854583740234, 230.4172821044922) rotate(-45.00000125223908)">
    <tspan class="GlobalId-0nw37eUeT77eWTyWrTgtBK IfcAnnotation PredefinedType-TEXT fill-bg" dy="0em" x="0" y="0">(3) 2x4</tspan>
  </text>
  <text dominant-baseline="baseline" style="font-size: 0;" text-anchor="start" transform="translate(124.54854583740234, 230.4172821044922) rotate(-45.00000125223908)">
    <tspan class="GlobalId-0nw37eUeT77eWTyWrTgtBK IfcAnnotation PredefinedType-TEXT fill-bg" dy="0em" x="0" y="0">(3) 2x4</tspan>
  </text>
  <text dominant-baseline="baseline" filter="url(#fill-background)" style="font-size: 0;" text-anchor="start" transform="translate(176.7338104248047, 102.47115325927734) rotate(-89.99998201391065)">
    <tspan class="GlobalId-0Ar1Ep3IDDQf_wtoXIlMfm IfcAnnotation PredefinedType-TEXT fill-bg" dy="0em" x="0" y="0">2x8 JOIST</tspan>
  </text>
  <text dominant-baseline="baseline" style="font-size: 0;" text-anchor="start" transform="translate(176.7338104248047, 102.47115325927734) rotate(-89.99998201391065)">
    <tspan class="GlobalId-0Ar1Ep3IDDQf_wtoXIlMfm IfcAnnotation PredefinedType-TEXT fill-bg" dy="0em" x="0" y="0">2x8 JOIST</tspan>
  </text>
</svg>
